{
	"schemaVersion": 1,
	"id": "${modId}",
	"version": "${version}",
	"name": "${modName}",
	"description": "${modDesc}",
	"authors": [ "ThePeeBrain" ],
	"contact": {
		"homepage": "https://gitlab.com/thepeebrainmc",
		"sources": "https://gitlab.com/thepeebrainmc/${modId}",
		"issues": "https://gitlab.com/thepeebrainmc/${modId}/-/issues"
	},
	"license": "LGPL-3.0",
	"icon": "assets/${modId}/icon.png",
	"environment": "${environment}",
	"entrypoints": {
		"main": [ "${modPackage}.${modClassName}" ]
	},
	"depends": {
		"fabricloader": ">=${fabricLoaderVersion}",
		"fabric-api": ">=${fabricApiVersion}",
		"minecraft": "${minecraftVersion}",
		"java": ">=17"
	}
}
